[{"id":1,"first_name":"Ninnetta","last_name":"Di Giorgio","email":"ndigiorgio0@indiatimes.com","country":"China"},
{"id":2,"first_name":"Staci","last_name":"Cofax","email":"scofax1@github.com","country":"Palestinian Territory"},
{"id":3,"first_name":"Dixie","last_name":"Dufoure","email":"ddufoure2@t.co","country":"China"},
{"id":4,"first_name":"Chucho","last_name":"Fosberry","email":"cfosberry3@free.fr","country":"Sweden"},
{"id":5,"first_name":"Klarrisa","last_name":"Ruter","email":"kruter4@comsenz.com","country":"China"},
{"id":6,"first_name":"Violante","last_name":"Imeson","email":"vimeson5@histats.com","country":"Philippines"},
{"id":7,"first_name":"Lisa","last_name":"Wondraschek","email":"lwondraschek6@ebay.com","country":"Ukraine"},
{"id":8,"first_name":"Ezmeralda","last_name":"Langlais","email":"elanglais7@pinterest.com","country":"Peru"},
{"id":9,"first_name":"Katharina","last_name":"Levington","email":"klevington8@bloglovin.com","country":"Czech Republic"},
{"id":10,"first_name":"Earlie","last_name":"Pinnington","email":"epinnington9@cpanel.net","country":"Yemen"},
{"id":11,"first_name":"Zach","last_name":"Asbery","email":"zasberya@java.com","country":"China"},
{"id":12,"first_name":"Saxe","last_name":"Bonellie","email":"sbonellieb@163.com","country":"Israel"},
{"id":13,"first_name":"Boris","last_name":"Trask","email":"btraskc@pagesperso-orange.fr","country":"China"},
{"id":14,"first_name":"Dore","last_name":"Vasyunkin","email":"dvasyunkind@qq.com","country":"China"},
{"id":15,"first_name":"Wendye","last_name":"Agates","email":"wagatese@scientificamerican.com","country":"Sweden"},
{"id":16,"first_name":"Fairfax","last_name":"Allberry","email":"fallberryf@aol.com","country":"China"},
{"id":17,"first_name":"Matilda","last_name":"Dunphie","email":"mdunphieg@google.es","country":"Malaysia"},
{"id":18,"first_name":"Kellina","last_name":"Hyams","email":"khyamsh@ameblo.jp","country":"Jordan"},
{"id":19,"first_name":"Wilbur","last_name":"Clutton","email":"wcluttoni@purevolume.com","country":"Mexico"},
{"id":20,"first_name":"Tucker","last_name":"Thredder","email":"tthredderj@sitemeter.com","country":"Argentina"},
{"id":21,"first_name":"Florentia","last_name":"Struan","email":"fstruank@google.com.au","country":"Tanzania"},
{"id":22,"first_name":"Nathalie","last_name":"Newlands","email":"nnewlandsl@senate.gov","country":"Brazil"},
{"id":23,"first_name":"Chen","last_name":"Hallifax","email":"challifaxm@homestead.com","country":"Mexico"},
{"id":24,"first_name":"Veronika","last_name":"Reichert","email":"vreichertn@businesswire.com","country":"Argentina"},
{"id":25,"first_name":"Heddie","last_name":"Fairfoot","email":"hfairfooto@feedburner.com","country":"United States"},
{"id":26,"first_name":"Andeee","last_name":"Kann","email":"akannp@smh.com.au","country":"Indonesia"},
{"id":27,"first_name":"Joby","last_name":"Gooble","email":"jgoobleq@simplemachines.org","country":"China"},
{"id":28,"first_name":"Dido","last_name":"Grimster","email":"dgrimsterr@t-online.de","country":"Iraq"},
{"id":29,"first_name":"Rosalind","last_name":"Breadmore","email":"rbreadmores@whitehouse.gov","country":"Vietnam"},
{"id":30,"first_name":"Saree","last_name":"Sawford","email":"ssawfordt@sciencedaily.com","country":"Russia"}]